,a,b,c
0,0,1,2
1,0,133,23
2,0,234,155
3,1,156,155
4,1,4,15
5,10,42,27
6,10,58,75
7,100,101,102
8,100,205,203
9,101,122,203
10,102,105,111
11,102,62,55
12,104,105,106
13,104,188,187
14,105,51,62
15,106,69,51
16,108,109,110
17,112,113,114
18,112,277,211
19,112,288,199
20,113,116,127
21,113,211,221
22,114,120,127
23,114,199,204
24,116,117,118
25,116,221,219
26,117,138,219
27,118,121,127
28,118,39,46
29,12,13,14
30,120,121,122
31,120,204,203
32,121,35,46
33,122,53,35
34,124,125,126
35,128,129,130
36,128,261,227
37,128,272,215
38,129,132,143
39,129,227,237
40,130,136,143
41,130,215,220
42,132,133,134
43,132,237,235
44,133,154,235
45,134,137,143
46,134,23,30
47,136,137,138
48,136,220,219
49,137,30,19
50,138,37,19
51,140,141,142
52,144,145,146
53,144,245,163
54,144,256,231
55,145,148,159
56,145,163,173
57,146,152,159
58,146,231,236
59,148,149,150
60,148,173,171
61,149,64,7
62,150,14,7
63,150,153,159
64,152,153,154
65,152,236,235
66,153,3,14
67,154,21,3
68,156,157,158
69,16,117,39
70,16,17,18
71,16,218,139
72,160,161,162
73,160,229,147
74,160,256,247
75,161,164,175
76,161,247,254
77,162,158,147
78,162,168,175
79,164,165,166
80,164,243,254
81,165,176,83
82,165,309,243
83,166,169,175
84,166,93,83
85,168,151,158
86,168,169,170
87,169,91,93
88,17,140,139
89,17,20,31
90,172,173,174
91,176,177,178
92,176,240,311
93,177,180,191
94,177,318,311
95,178,184,191
96,178,94,83
97,18,24,31
98,18,44,39
99,180,181,182
100,180,307,318
101,181,192,99
102,181,293,307
103,182,109,99
104,182,185,191
105,184,185,186
106,184,87,94
107,185,107,109
108,188,189,190
109,192,193,194
110,192,304,295
111,193,196,207
112,193,295,302
113,194,110,99
114,194,200,207
115,196,197,198
116,196,302,291
117,197,208,115
118,197,277,291
119,198,125,115
120,198,201,207
121,2,23,28
122,2,8,15
123,20,135,140
124,20,21,22
125,200,103,110
126,200,201,202
127,201,123,125
128,204,205,206
129,208,209,210
130,208,288,279
131,209,212,223
132,209,286,279
133,21,234,135
134,210,126,115
135,210,216,223
136,212,213,214
137,212,275,286
138,213,261,275
139,214,141,131
140,214,217,223
141,216,119,126
142,216,217,218
143,217,139,141
144,22,13,3
145,22,25,31
146,220,221,222
147,224,213,131
148,224,225,226
149,224,272,263
150,225,228,239
151,225,263,270
152,226,142,131
153,226,232,239
154,228,229,230
155,228,270,259
156,229,245,259
157,230,157,147
158,230,233,239
159,232,135,142
160,232,233,234
161,233,155,157
162,236,237,238
163,24,25,26
164,24,43,44
165,240,241,242
166,241,167,174
167,241,244,255
168,242,248,255
169,242,311,316
170,244,163,174
171,244,245,246
172,246,249,255
173,246,259,269
174,248,249,250
175,248,316,315
176,249,269,267
177,25,11,13
178,250,282,267
179,250,298,315
180,252,253,254
181,256,257,258
182,257,238,231
183,257,260,271
184,258,252,247
185,258,264,271
186,26,58,43
187,260,227,238
188,260,261,262
189,262,265,271
190,262,285,275
191,264,251,252
192,264,265,266
193,265,283,285
194,266,298,283
195,268,269,270
196,272,273,274
197,273,222,215
198,273,276,287
199,274,263,268
200,274,280,287
201,276,211,222
202,276,277,278
203,278,281,287
204,278,301,291
205,28,29,30
206,280,268,267
207,280,281,282
208,281,299,301
209,282,314,299
210,284,285,286
211,288,289,290
212,289,199,206
213,289,292,303
214,290,284,279
215,290,296,303
216,292,206,195
217,292,293,294
218,294,297,303
219,294,307,317
220,296,283,284
221,296,297,298
222,297,317,315
223,300,301,302
224,304,305,306
225,305,183,190
226,305,308,319
227,306,300,295
228,306,312,319
229,308,190,179
230,308,309,310
231,310,253,243
232,310,313,319
233,312,299,300
234,312,313,314
235,313,251,253
236,314,266,251
237,316,317,318
238,32,101,55
239,32,202,123
240,32,33,34
241,33,123,124
242,33,36,47
243,34,40,47
244,34,55,60
245,36,119,124
246,36,37,38
247,37,218,119
248,38,19,29
249,38,41,47
250,4,151,156
251,4,5,6
252,40,41,42
253,40,60,59
254,41,29,27
255,42,74,59
256,44,45,46
257,48,186,107
258,48,49,50
259,48,85,71
260,49,107,108
261,49,52,63
262,5,170,151
263,5,90,67
264,50,56,63
265,50,76,71
266,52,108,103
267,52,53,54
268,53,202,103
269,54,45,35
270,54,57,63
271,56,57,58
272,56,75,76
273,57,43,45
274,6,77,67
275,6,9,15
276,60,61,62
277,64,170,91
278,64,65,66
279,65,68,79
280,65,91,92
281,66,12,7
282,66,72,79
283,68,69,70
284,68,92,87
285,69,186,87
286,70,51,61
287,70,73,79
288,72,11,12
289,72,73,74
290,73,61,59
291,74,26,11
292,76,77,78
293,8,28,27
294,8,9,10
295,80,240,167
296,80,309,179
297,80,81,82
298,81,179,189
299,81,84,95
300,82,167,172
301,82,88,95
302,84,189,187
303,84,85,86
304,85,106,187
305,86,71,78
306,86,89,95
307,88,172,171
308,88,89,90
309,89,78,67
310,9,75,77
311,90,149,171
312,92,93,94
313,96,293,195
314,96,304,183
315,96,97,98
316,97,100,111
317,97,195,205
318,98,104,111
319,98,183,188
